{
       "name":"local-file-sink",
       "config" :{
               "connector.class":"FileStreamSink",
               "tasks.max":"9",
               "file":"test.sink.txt",
               "topics":"TOPIC_TEST_1"
       }
}
